Retrieve classification above the taxon — rt_taxa_parent • rtaxref
…
rt_taxa_parent(id)

    Arguments

    id
integer(1)

an integer giving the id of the taxon in TaxRef (also called
cdNom)

    Examples

rt_taxa_parent(id = 443800)
#> # A tibble: 21 × 62
#>        id referenceId parentId scientificName authority    fullName fullNameHtml
#>     <int>       <int>    <int> <chr>          <chr>        <chr>    <chr>       
#>  1 349525      349525       NA Biota          Endl.(D.Don) "Biota … Biota Endl.…
#>  2 183716      183716   349525 Animalia       Linnaeus, 1… "Animal… Animalia Li…
#>  3 838319      838319   183716 Eumetazoa      Bütschli, 1… "Eumeta… Eumetazoa B…
#>  4 838320      838320   838319 Bilateria      Haeckel, 18… "Bilate… Bilateria H…
#>  5 838322      838322   838320 Deuterostomia  Karl Grobbe… "Deuter… Deuterostom…
#>  6 185694      185694   838322 Chordata       Haeckel, 18… "Chorda… Chordata Ha…
#>  7 838103      838103   185694 Craniata       Janvier, 19… "Crania… Craniata Ja…
#>  8 185695      185695   838103 Vertebrata     Linnaeus, 1… "Verteb… Vertebrata …
#>  9 185703      185703   185695 Gnathostomata  NA           "Gnatho… Gnathostoma…
#> 10 838092      838092   185703 Euteleostomi   NA           "Eutele… Euteleostomi
#> # … with 11 more rows, and 55 more variables: rankId <chr>, rankName <chr>,
#> #   referenceName <chr>, referenceNameHtml <chr>, frenchVernacularName <chr>,
#> #   englishVernacularName <chr>, genusName <chr>, familyName <chr>,
#> #   orderName <chr>, className <chr>, phylumName <chr>, kingdomName <chr>,
#> #   vernacularGenusName <lgl>, vernacularFamilyName <chr>,
#> #   vernacularOrderName <lgl>, vernacularClassName <chr>,
#> #   vernacularPhylumName <chr>, vernacularKingdomName <chr>, …
…
